%YAML 1.1
%TAG !u! tag:unity3d.com,2011:
--- !u!74 &7400000
AnimationClip:
  m_ObjectHideFlags: 0
  m_CorrespondingSourceObject: {fileID: 0}
  m_PrefabInstance: {fileID: 0}
  m_PrefabAsset: {fileID: 0}
  m_Name: Ninja - Idle_Right
  serializedVersion: 6
  m_Legacy: 0
  m_Compressed: 0
  m_UseHighQualityCurve: 1
  m_RotationCurves: []
  m_CompressedRotationCurves: []
  m_EulerCurves: []
  m_PositionCurves: []
  m_ScaleCurves: []
  m_FloatCurves: []
  m_PPtrCurves:
  - curve:
    - time: 0
      value: {fileID: 21300422, guid: 51cd18e718b12104b962e89cc80ac4a9, type: 3}
    - time: 0.083333336
      value: {fileID: 21300424, guid: 51cd18e718b12104b962e89cc80ac4a9, type: 3}
    - time: 0.16666667
      value: {fileID: 21300426, guid: 51cd18e718b12104b962e89cc80ac4a9, type: 3}
    - time: 0.26666668
      value: {fileID: 21300428, guid: 51cd18e718b12104b962e89cc80ac4a9, type: 3}
    - time: 0.35
      value: {fileID: 21300430, guid: 51cd18e718b12104b962e89cc80ac4a9, type: 3}
    - time: 0.43333334
      value: {fileID: 21300432, guid: 51cd18e718b12104b962e89cc80ac4a9, type: 3}
    - time: 0.51666665
      value: {fileID: 21300434, guid: 51cd18e718b12104b962e89cc80ac4a9, type: 3}
    - time: 0.6166667
      value: {fileID: 21300436, guid: 51cd18e718b12104b962e89cc80ac4a9, type: 3}
    - time: 0.7
      value: {fileID: 21300438, guid: 51cd18e718b12104b962e89cc80ac4a9, type: 3}
    - time: 0.78333336
      value: {fileID: 21300440, guid: 51cd18e718b12104b962e89cc80ac4a9, type: 3}
    - time: 0.8666667
      value: {fileID: 21300442, guid: 51cd18e718b12104b962e89cc80ac4a9, type: 3}
    - time: 0.95
      value: {fileID: 21300444, guid: 51cd18e718b12104b962e89cc80ac4a9, type: 3}
    - time: 1.05
      value: {fileID: 21300446, guid: 51cd18e718b12104b962e89cc80ac4a9, type: 3}
    - time: 1.1333333
      value: {fileID: 21300448, guid: 51cd18e718b12104b962e89cc80ac4a9, type: 3}
    - time: 1.2166667
      value: {fileID: 21300450, guid: 51cd18e718b12104b962e89cc80ac4a9, type: 3}
    - time: 1.3
      value: {fileID: 21300452, guid: 51cd18e718b12104b962e89cc80ac4a9, type: 3}
    - time: 1.3833333
      value: {fileID: 21300454, guid: 51cd18e718b12104b962e89cc80ac4a9, type: 3}
    - time: 1.4833333
      value: {fileID: 21300456, guid: 51cd18e718b12104b962e89cc80ac4a9, type: 3}
    - time: 1.5666667
      value: {fileID: 21300458, guid: 51cd18e718b12104b962e89cc80ac4a9, type: 3}
    - time: 1.65
      value: {fileID: 21300460, guid: 51cd18e718b12104b962e89cc80ac4a9, type: 3}
    - time: 1.7333333
      value: {fileID: 21300462, guid: 51cd18e718b12104b962e89cc80ac4a9, type: 3}
    - time: 1.8333334
      value: {fileID: 21300464, guid: 51cd18e718b12104b962e89cc80ac4a9, type: 3}
    - time: 1.9166666
      value: {fileID: 21300466, guid: 51cd18e718b12104b962e89cc80ac4a9, type: 3}
    - time: 2
      value: {fileID: 21300468, guid: 51cd18e718b12104b962e89cc80ac4a9, type: 3}
    attribute: m_Sprite
    path: 
    classID: 212
    script: {fileID: 0}
  m_SampleRate: 60
  m_WrapMode: 0
  m_Bounds:
    m_Center: {x: 0, y: 0, z: 0}
    m_Extent: {x: 0, y: 0, z: 0}
  m_ClipBindingConstant:
    genericBindings:
    - serializedVersion: 2
      path: 0
      attribute: 0
      script: {fileID: 0}
      typeID: 212
      customType: 23
      isPPtrCurve: 1
    pptrCurveMapping:
    - {fileID: 21300422, guid: 51cd18e718b12104b962e89cc80ac4a9, type: 3}
    - {fileID: 21300424, guid: 51cd18e718b12104b962e89cc80ac4a9, type: 3}
    - {fileID: 21300426, guid: 51cd18e718b12104b962e89cc80ac4a9, type: 3}
    - {fileID: 21300428, guid: 51cd18e718b12104b962e89cc80ac4a9, type: 3}
    - {fileID: 21300430, guid: 51cd18e718b12104b962e89cc80ac4a9, type: 3}
    - {fileID: 21300432, guid: 51cd18e718b12104b962e89cc80ac4a9, type: 3}
    - {fileID: 21300434, guid: 51cd18e718b12104b962e89cc80ac4a9, type: 3}
    - {fileID: 21300436, guid: 51cd18e718b12104b962e89cc80ac4a9, type: 3}
    - {fileID: 21300438, guid: 51cd18e718b12104b962e89cc80ac4a9, type: 3}
    - {fileID: 21300440, guid: 51cd18e718b12104b962e89cc80ac4a9, type: 3}
    - {fileID: 21300442, guid: 51cd18e718b12104b962e89cc80ac4a9, type: 3}
    - {fileID: 21300444, guid: 51cd18e718b12104b962e89cc80ac4a9, type: 3}
    - {fileID: 21300446, guid: 51cd18e718b12104b962e89cc80ac4a9, type: 3}
    - {fileID: 21300448, guid: 51cd18e718b12104b962e89cc80ac4a9, type: 3}
    - {fileID: 21300450, guid: 51cd18e718b12104b962e89cc80ac4a9, type: 3}
    - {fileID: 21300452, guid: 51cd18e718b12104b962e89cc80ac4a9, type: 3}
    - {fileID: 21300454, guid: 51cd18e718b12104b962e89cc80ac4a9, type: 3}
    - {fileID: 21300456, guid: 51cd18e718b12104b962e89cc80ac4a9, type: 3}
    - {fileID: 21300458, guid: 51cd18e718b12104b962e89cc80ac4a9, type: 3}
    - {fileID: 21300460, guid: 51cd18e718b12104b962e89cc80ac4a9, type: 3}
    - {fileID: 21300462, guid: 51cd18e718b12104b962e89cc80ac4a9, type: 3}
    - {fileID: 21300464, guid: 51cd18e718b12104b962e89cc80ac4a9, type: 3}
    - {fileID: 21300466, guid: 51cd18e718b12104b962e89cc80ac4a9, type: 3}
    - {fileID: 21300468, guid: 51cd18e718b12104b962e89cc80ac4a9, type: 3}
  m_AnimationClipSettings:
    serializedVersion: 2
    m_AdditiveReferencePoseClip: {fileID: 0}
    m_AdditiveReferencePoseTime: 0
    m_StartTime: 0
    m_StopTime: 2.0166667
    m_OrientationOffsetY: 0
    m_Level: 0
    m_CycleOffset: 0
    m_HasAdditiveReferencePose: 0
    m_LoopTime: 1
    m_LoopBlend: 0
    m_LoopBlendOrientation: 0
    m_LoopBlendPositionY: 0
    m_LoopBlendPositionXZ: 0
    m_KeepOriginalOrientation: 0
    m_KeepOriginalPositionY: 1
    m_KeepOriginalPositionXZ: 0
    m_HeightFromFeet: 0
    m_Mirror: 0
  m_EditorCurves: []
  m_EulerEditorCurves: []
  m_HasGenericRootTransform: 0
  m_HasMotionFloatCurves: 0
  m_Events: []
